%YAML 1.1
%TAG !u! tag:unity3d.com,2011:
--- !u!114 &11400000
MonoBehaviour:
  m_ObjectHideFlags: 0
  m_CorrespondingSourceObject: {fileID: 0}
  m_PrefabInstance: {fileID: 0}
  m_PrefabAsset: {fileID: 0}
  m_GameObject: {fileID: 0}
  m_Enabled: 1
  m_EditorHideFlags: 0
  m_Script: {fileID: 11500000, guid: 60a2ebd20f2d1ed4ba24af96d337185c, type: 3}
  m_Name: Default
  m_EditorClassIdentifier: 
  biomeName: Default
  solidGroundHeight: 32
  terrainHeight: 16
  terrainScale: 0.25
  lodes:
  - nodeName: Coal
    blockID: 3
    minHeight: 5
    maxHeight: 25
    scale: 0.1
    threshold: 0.6
    noiseOffset: 100
